Ejercicio 1 - Contador/contador_tb.vcd
$date
	Sat Oct 24 20:26:47 2020
$end
$version
	Icarus Verilog
$end
$timescale
	1ps
$end
$scope module testbench $end
$var wire 12 ! out [11:0] $end
$var reg 12 " carga [11:0] $end
$var reg 1 # clock $end
$var reg 1 $ enable $end
$var reg 1 % load $end
$var reg 1 & res $end
$scope module contador $end
$var wire 1 # clock $end
$var wire 1 $ enable $end
$var wire 1 % load $end
$var wire 1 & reset $end
$var wire 12 ' valueLoad [11:0] $end
$var reg 12 ( out [11:0] $end
$upscope $end
$upscope $end
$enddefinitions $end
#0
$dumpvars
bx (
b0 '
0&
0%
0$
0#
b0 "
bx !
$end
#1
b0 !
b0 (
1#
1&
#2
0#
0&
#3
1#
#4
0#
1$
#5
b1 !
b1 (
1#
#6
0#
#7
b10 !
b10 (
1#
#8
0#
#9
b11 !
b11 (
1#
#10
0#
#11
b100 !
b100 (
1#
#12
0#
#13
b101 !
b101 (
1#
#14
0#
#15
b110 !
b110 (
1#
#16
0#
#17
b111 !
b111 (
1#
#18
0#
#19
b1000 !
b1000 (
1#
#20
0#
#21
b1001 !
b1001 (
1#
#22
0#
#23
b1010 !
b1010 (
1#
#24
0#
#25
b1011 !
b1011 (
1#
#26
0#
#27
b1100 !
b1100 (
1#
#28
0#
#29
b1101 !
b1101 (
1#
#30
0#
#31
b1110 !
b1110 (
1#
#32
0#
#33
b1111 !
b1111 (
1#
#34
0#
#35
b10000 !
b10000 (
1#
#36
0#
#37
b10001 !
b10001 (
1#
#38
0#
#39
b10010 !
b10010 (
1#
#40
0#
#41
b10011 !
b10011 (
1#
#42
0#
#43
b10100 !
b10100 (
1#
#44
0#
#45
b10101 !
b10101 (
1#
#46
0#
#47
b10110 !
b10110 (
1#
#48
0#
#49
b10111 !
b10111 (
1#
#50
0#
#51
b11000 !
b11000 (
1#
#52
0#
#53
b11001 !
b11001 (
1#
#54
b0 !
b0 (
0#
1&
#55
1#
#56
0#
0&
#57
b1 !
b1 (
1#
#58
0#
#59
b10 !
b10 (
1#
#60
0#
#61
b11 !
b11 (
1#
#62
0#
#63
b100 !
b100 (
1#
#64
0#
#65
b101 !
b101 (
1#
#66
0#
b11111111 "
b11111111 '
#67
b110 !
b110 (
1#
#68
0#
#69
b111 !
b111 (
1#
#70
b11111111 !
b11111111 (
0#
1%
#71
1#
#72
0#
#73
1#
#74
0#
#75
1#
#76
0#
#77
1#
#78
0#
#79
1#
#80
0#
0%
#81
b100000000 !
b100000000 (
1#
#82
0#
#83
b100000001 !
b100000001 (
1#
#84
0#
#85
b100000010 !
b100000010 (
1#
#86
0#
#87
b100000011 !
b100000011 (
1#
#88
0#
#89
b100000100 !
b100000100 (
1#
#90
0#
0$
#91
1#
#92
0#
#93
1#
#94
0#
#95
1#
#96
0#
#97
1#
#98
0#
#99
1#
#100
0#
1$
#101
b100000101 !
b100000101 (
1#
#102
0#
#103
b100000110 !
b100000110 (
1#
#104
0#
#105
b100000111 !
b100000111 (
1#
#106
0#
#107
b100001000 !
b100001000 (
1#
#108
0#
#109
b100001001 !
b100001001 (
1#
#110
b0 !
b0 (
0#
1&
#111
1#
#112
0#
0&
#113
b1 !
b1 (
1#
#114
0#
#115
b10 !
b10 (
1#
#116
0#
#117
b11 !
b11 (
1#
#118
0#
#119
b100 !
b100 (
1#
#120
0#
#121
b101 !
b101 (
1#
#122
0#
b111111111010 "
b111111111010 '
#123
b111111111010 !
b111111111010 (
1#
1%
#124
0#
#125
1#
#126
0#
#127
b111111111011 !
b111111111011 (
1#
0%
#128
0#
#129
b111111111100 !
b111111111100 (
1#
#130
0#
#131
b111111111101 !
b111111111101 (
1#
#132
0#
#133
b111111111110 !
b111111111110 (
1#
#134
0#
#135
b111111111111 !
b111111111111 (
1#
#136
0#
#137
b0 !
b0 (
1#
#138
0#
#139
b1 !
b1 (
1#
#140
0#
#141
b10 !
b10 (
1#
#142
0#
#143
b11 !
b11 (
1#
#144
0#
#145
b100 !
b100 (
1#
#146
0#
#147
b101 !
b101 (
1#
#148
0#
#149
b110 !
b110 (
1#
#150
0#
#151
b111 !
b111 (
1#
#152
0#
#153
b1000 !
b1000 (
1#
#154
0#
#155
b1001 !
b1001 (
1#
#156
0#
#157
b1010 !
b1010 (
1#
#158
0#
#159
b1011 !
b1011 (
1#
#160
0#
#161
b1100 !
b1100 (
1#
